<?xml version="1.0" encoding="utf-8"?>
<!-- Generator: Adobe Illustrator 24.1.2, SVG Export Plug-In . SVG Version: 6.00 Build 0)  -->
<svg version="1.1" xmlns="http://www.w3.org/2000/svg" xmlns:xlink="http://www.w3.org/1999/xlink" x="0px" y="0px"
     width="40px" height="40px" viewBox="0 0 40 40" style="enable-background:new 0 0 40 40;" xml:space="preserve">
<style type="text/css">
	.st0{fill:#292929;}
	.st1{display:none;}
	.st2{display:inline;}
	.st3{fill:#CC0000;}
</style>
<g id="ring_x5F_blank">
	<g>
		<rect x="0.5" y="0.5" width="39" height="39"/>
		<path class="st0" d="M39,1v38H1V1H39 M40,0H0v40h40V0L40,0z"/>
	</g>
</g>
<g id="ring_x5F_et" class="st1">
	<g class="st2">
		<path class="st3" d="M17.74,12.94c-0.23-1.54,0.09-3.09,0.96-4.63s2.13-2.88,3.77-4c1.65-1.12,3.37-1.64,5.15-1.56
			c-0.83,0.26-1.64,0.56-2.42,0.9c-0.78,0.33-1.46,0.8-2.03,1.4s-1,1.4-1.27,2.39c-0.27,1-0.33,2.28-0.16,3.83
			c0.29-0.03,0.57-0.01,0.86,0.04s0.57,0.16,0.84,0.31c0.64,0.37,1.06,0.91,1.25,1.62s0.1,1.39-0.29,2.03
			c-0.33,0.59-0.81,0.99-1.45,1.2s-1.25,0.19-1.86-0.05C19.09,15.66,17.97,14.5,17.74,12.94z M21.27,18.99
			c0.68,0.51,1.43,0.85,2.25,1.05s1.71,0.16,2.7-0.1c1-0.25,2.13-0.83,3.4-1.76c-0.18-0.23-0.31-0.49-0.41-0.77
			s-0.14-0.57-0.14-0.87c0-0.74,0.26-1.37,0.79-1.9s1.16-0.79,1.9-0.79c0.67,0,1.25,0.22,1.75,0.67s0.8,0.99,0.89,1.63
			c0.34,2.12-0.1,3.67-1.33,4.66s-2.73,1.48-4.5,1.5S25,21.88,23.2,21c-1.79-0.86-3.1-2.08-3.92-3.65
			C19.92,17.94,20.58,18.49,21.27,18.99z M31.17,8.64c-0.19,0.22-0.42,0.41-0.68,0.57c-0.64,0.37-1.32,0.46-2.03,0.27
			s-1.25-0.61-1.62-1.25c-0.34-0.59-0.45-1.21-0.32-1.87s0.45-1.18,0.97-1.58c1.67-1.35,3.23-1.74,4.7-1.17s2.64,1.62,3.54,3.15
			s1.42,3.28,1.57,5.28s-0.25,3.74-1.21,5.23c0.19-0.86,0.33-1.71,0.43-2.54c0.11-0.85,0.04-1.67-0.21-2.47s-0.72-1.56-1.44-2.29
			c-0.72-0.74-1.81-1.42-3.26-2.05C31.52,8.18,31.36,8.42,31.17,8.64z"/>
	</g>
	<g class="st2">
		<g>
			<path class="st3" d="M14.43,17.94c0.23-0.17,0.49-0.26,0.78-0.26c0.38,0,0.71,0.15,0.98,0.45s0.41,0.66,0.41,1.07
				c0,0.42-0.14,0.78-0.41,1.08s-0.6,0.44-0.98,0.44c-2.43,0.18-4.42,0.76-5.97,1.74c-1.54,1-2.6,2.16-3.17,3.49
				s-0.63,2.71-0.17,4.14s1.46,2.68,3.04,3.73c0.21-1.37,0.52-2.4,0.94-3.1s0.91-1.2,1.45-1.5s1.12-0.49,1.73-0.55
				c0.62-0.05,1.22-0.12,1.83-0.21l-0.57,4.41l1.93,1.99c1.48-1.08,2.52-2.14,3.12-3.18s0.84-2.06,0.71-3.08s-0.59-2.01-1.38-2.99
				c-0.81-0.98-1.88-1.96-3.22-2.91c2.02,0.9,3.58,1.87,4.68,2.91s1.7,2.15,1.83,3.34s-0.25,2.46-1.13,3.81
				c-0.88,1.34-2.27,2.76-4.18,4.27l-3.81-3.38l-0.06-3.12c-0.68,0.03-1.25,0.53-1.69,1.52s-0.69,2.75-0.73,5.31
				c-2.82-2.23-4.68-4.29-5.6-6.19c-0.9-1.89-1.09-3.61-0.56-5.17s1.66-2.95,3.41-4.18c1.74-1.23,3.84-2.3,6.32-3.22
				C14.03,18.33,14.2,18.11,14.43,17.94z"/>
		</g>
	</g>
</g>
<g id="ring_x5F_o" class="st1">
	<g class="st2">
		<g>
			<path class="st3" d="M6.96,25.93c-0.43-0.5-0.64-1.09-0.64-1.77c0-0.76,0.27-1.41,0.81-1.95c0.54-0.54,1.19-0.81,1.95-0.81
				c0.74,0,1.38,0.27,1.92,0.81c0.54,0.54,0.81,1.19,0.81,1.95c0,0.1,0,0.19,0,0.26c0,0.08-0.01,0.16-0.03,0.23
				c1.54,0.1,2.8-0.13,3.78-0.67c0.98-0.55,1.84-1.23,2.58-2.05c-0.25,1-0.63,1.87-1.11,2.61c-0.49,0.76-1.11,1.36-1.88,1.8
				s-1.69,0.72-2.78,0.83c-1.07,0.1-2.33-0.01-3.78-0.32C7.93,26.74,7.39,26.43,6.96,25.93z M8.74,11.91
				c0.22-0.63,0.63-1.1,1.22-1.44c0.66-0.39,1.36-0.49,2.09-0.29c0.73,0.2,1.28,0.63,1.66,1.29c0.39,0.66,0.48,1.36,0.28,2.09
				s-0.63,1.28-1.27,1.66c-0.08,0.04-0.16,0.08-0.23,0.12c-0.08,0.04-0.16,0.07-0.23,0.09c0.7,1.41,1.53,2.39,2.49,2.96
				c0.96,0.57,1.97,0.97,3.05,1.2c-0.98,0.27-1.91,0.38-2.81,0.32c-0.9-0.04-1.73-0.28-2.49-0.72s-1.46-1.1-2.11-1.98
				c-0.63-0.88-1.16-2.03-1.61-3.46C8.52,13.15,8.51,12.54,8.74,11.91z M15.08,32.49c-0.2-0.73-0.11-1.43,0.26-2.09
				c0.39-0.64,0.95-1.06,1.68-1.26c0.73-0.19,1.42-0.11,2.07,0.26c0.08,0.04,0.15,0.08,0.22,0.13c0.07,0.05,0.13,0.1,0.19,0.16
				c0.86-1.31,1.3-2.52,1.32-3.63c0.02-1.11-0.14-2.2-0.47-3.25c0.72,0.72,1.29,1.48,1.7,2.29c0.39,0.8,0.59,1.64,0.6,2.52
				c0.01,0.88-0.21,1.82-0.66,2.81c-0.45,0.98-1.17,2.02-2.17,3.13c-0.43,0.49-0.97,0.8-1.63,0.92c-0.65,0.13-1.27,0.01-1.86-0.34
				C15.69,33.78,15.27,33.22,15.08,32.49z M20.18,7.37c0.41-0.49,0.94-0.8,1.6-0.92c0.65-0.13,1.27-0.01,1.86,0.34
				c0.66,0.37,1.09,0.92,1.29,1.66c0.19,0.73,0.1,1.43-0.29,2.09c-0.37,0.64-0.92,1.06-1.66,1.26c-0.73,0.2-1.43,0.11-2.09-0.26
				c-0.08-0.04-0.15-0.08-0.22-0.13c-0.07-0.05-0.13-0.1-0.19-0.16c-0.86,1.31-1.29,2.52-1.3,3.63c-0.01,1.11,0.15,2.2,0.48,3.25
				c-0.72-0.72-1.29-1.48-1.7-2.29c-0.41-0.8-0.62-1.64-0.62-2.52s0.22-1.82,0.67-2.81C18.46,9.53,19.18,8.48,20.18,7.37z
				 M28.19,16.51c0.01-0.08,0.02-0.16,0.04-0.23c-1.56-0.1-2.83,0.13-3.81,0.67c-0.98,0.55-1.84,1.23-2.58,2.05
				c0.27-1,0.65-1.86,1.14-2.61c0.47-0.76,1.09-1.36,1.86-1.8c0.77-0.44,1.69-0.72,2.77-0.83c1.07-0.1,2.34,0.01,3.81,0.32
				c0.64,0.12,1.18,0.42,1.61,0.92c0.43,0.5,0.64,1.09,0.64,1.77c0,0.76-0.27,1.41-0.81,1.95c-0.54,0.54-1.19,0.81-1.95,0.81
				s-1.41-0.27-1.95-0.81c-0.54-0.54-0.81-1.19-0.81-1.95C28.17,16.68,28.18,16.59,28.19,16.51z M26.01,27.37
				c0.19-0.73,0.63-1.28,1.29-1.66c0.06-0.04,0.13-0.08,0.21-0.12c0.08-0.04,0.16-0.07,0.23-0.09c-0.68-1.41-1.51-2.39-2.48-2.96
				c-0.97-0.57-1.99-0.97-3.06-1.2c1-0.27,1.93-0.38,2.81-0.32c0.9,0.04,1.73,0.28,2.5,0.72c0.77,0.44,1.47,1.1,2.09,1.98
				c0.63,0.88,1.17,2.03,1.64,3.46c0.21,0.61,0.21,1.22-0.01,1.85c-0.22,0.63-0.63,1.1-1.22,1.44c-0.64,0.39-1.33,0.49-2.07,0.29
				c-0.73-0.19-1.29-0.63-1.68-1.29C25.9,28.8,25.81,28.1,26.01,27.37z"/>
		</g>
	</g>
</g>
<g id="ring_x5F_ot">
	<g>
		<path class="st3" d="M18.36,16.34c-0.3-0.35-0.45-0.76-0.45-1.24c0-0.53,0.19-0.99,0.56-1.36s0.83-0.56,1.36-0.56
			c0.52,0,0.97,0.19,1.34,0.56s0.56,0.83,0.56,1.36c0,0.07,0,0.13,0,0.18s-0.01,0.11-0.02,0.16c1.08,0.07,1.96-0.09,2.65-0.47
			s1.29-0.86,1.8-1.44c-0.18,0.7-0.44,1.31-0.78,1.83c-0.34,0.53-0.78,0.95-1.31,1.26s-1.18,0.5-1.95,0.58
			c-0.75,0.07-1.63-0.01-2.65-0.23C19.03,16.9,18.66,16.69,18.36,16.34z M19.6,6.52c0.16-0.44,0.44-0.77,0.85-1
			c0.46-0.27,0.95-0.34,1.47-0.21s0.9,0.44,1.16,0.9c0.27,0.46,0.34,0.95,0.19,1.47s-0.44,0.9-0.89,1.16
			c-0.05,0.03-0.11,0.05-0.16,0.08s-0.11,0.05-0.16,0.06c0.49,0.98,1.07,1.67,1.74,2.07s1.38,0.68,2.13,0.84
			c-0.68,0.19-1.34,0.27-1.97,0.23c-0.63-0.03-1.21-0.19-1.74-0.5s-1.03-0.77-1.48-1.38c-0.44-0.62-0.81-1.42-1.13-2.42
			C19.44,7.39,19.44,6.96,19.6,6.52z M24.04,20.93c-0.14-0.51-0.08-1,0.18-1.47c0.27-0.45,0.67-0.75,1.18-0.88s0.99-0.08,1.45,0.18
			c0.05,0.03,0.11,0.06,0.15,0.09s0.09,0.07,0.13,0.11c0.6-0.92,0.91-1.76,0.92-2.54c0.01-0.78-0.1-1.54-0.33-2.28
			c0.51,0.51,0.9,1.04,1.19,1.6c0.27,0.56,0.41,1.15,0.42,1.76s-0.15,1.27-0.46,1.97c-0.31,0.68-0.82,1.42-1.52,2.19
			c-0.3,0.34-0.68,0.56-1.14,0.65s-0.89,0.01-1.3-0.24C24.47,21.83,24.17,21.44,24.04,20.93z M27.6,3.35
			C27.89,3,28.26,2.79,28.72,2.7s0.89-0.01,1.3,0.24c0.46,0.26,0.77,0.65,0.9,1.16s0.07,1-0.21,1.47c-0.26,0.45-0.65,0.75-1.16,0.88
			s-1,0.08-1.47-0.18c-0.05-0.03-0.11-0.06-0.15-0.09s-0.09-0.07-0.13-0.11c-0.6,0.92-0.91,1.76-0.91,2.54s0.11,1.54,0.34,2.28
			c-0.51-0.51-0.9-1.04-1.19-1.6s-0.43-1.15-0.43-1.76s0.16-1.27,0.47-1.97C26.4,4.86,26.91,4.13,27.6,3.35z M33.21,9.74
			c0.01-0.05,0.02-0.11,0.03-0.16c-1.09-0.07-1.98,0.09-2.67,0.47s-1.29,0.86-1.8,1.44c0.19-0.7,0.46-1.31,0.8-1.83
			c0.33-0.53,0.76-0.95,1.3-1.26s1.19-0.5,1.94-0.58c0.75-0.07,1.64,0.01,2.67,0.23c0.45,0.08,0.83,0.3,1.13,0.65
			s0.45,0.76,0.45,1.24c0,0.53-0.19,0.99-0.56,1.36s-0.83,0.56-1.36,0.56s-0.99-0.19-1.36-0.56s-0.56-0.83-0.56-1.36
			C33.2,9.86,33.21,9.8,33.21,9.74z M31.69,17.34c0.14-0.51,0.44-0.9,0.9-1.16c0.04-0.03,0.09-0.05,0.14-0.08s0.11-0.05,0.16-0.06
			c-0.48-0.98-1.06-1.67-1.73-2.07s-1.39-0.68-2.14-0.84c0.7-0.19,1.35-0.27,1.97-0.23c0.63,0.03,1.21,0.19,1.75,0.5
			s1.03,0.77,1.47,1.38s0.82,1.42,1.15,2.42c0.15,0.42,0.15,0.85-0.01,1.29s-0.44,0.77-0.85,1c-0.45,0.27-0.93,0.34-1.45,0.21
			s-0.91-0.44-1.18-0.9C31.61,18.34,31.55,17.86,31.69,17.34z"/>
	</g>
	<g>
		<g>
			<path class="st3" d="M14.43,17.94c0.23-0.17,0.49-0.26,0.78-0.26c0.38,0,0.71,0.15,0.98,0.45s0.41,0.66,0.41,1.07
				c0,0.42-0.14,0.78-0.41,1.08s-0.6,0.44-0.98,0.44c-2.43,0.18-4.42,0.76-5.97,1.74c-1.54,1-2.6,2.16-3.17,3.49
				s-0.63,2.71-0.17,4.14s1.46,2.68,3.04,3.73c0.21-1.37,0.52-2.4,0.94-3.1s0.91-1.2,1.45-1.5s1.12-0.49,1.73-0.55
				c0.62-0.05,1.22-0.12,1.83-0.21l-0.57,4.41l1.93,1.99c1.48-1.08,2.52-2.14,3.12-3.18s0.84-2.06,0.71-3.08s-0.59-2.01-1.38-2.99
				c-0.81-0.98-1.88-1.96-3.22-2.91c2.02,0.9,3.58,1.87,4.68,2.91s1.7,2.15,1.83,3.34s-0.25,2.46-1.13,3.81
				c-0.88,1.34-2.27,2.76-4.18,4.27l-3.81-3.38l-0.06-3.12c-0.68,0.03-1.25,0.53-1.69,1.52s-0.69,2.75-0.73,5.31
				c-2.82-2.23-4.68-4.29-5.6-6.19c-0.9-1.89-1.09-3.61-0.56-5.17s1.66-2.95,3.41-4.18c1.74-1.23,3.84-2.3,6.32-3.22
				C14.03,18.33,14.2,18.11,14.43,17.94z"/>
		</g>
	</g>
</g>
<g id="ring_x5F_s" class="st1">
	<g class="st2">
		<g>
			<path class="st3" d="M16.57,33.44c-2.05-0.8-3.84-1.87-5.38-3.21c-1.53-1.34-2.73-2.86-3.59-4.56C6.75,24,6.34,22.3,6.38,20.58
				c0.08-1.15,0.27-2.3,0.59-3.46c0.31-1.15,0.76-2.26,1.35-3.31s1.31-2.04,2.17-2.96c0.88-0.92,1.9-1.72,3.08-2.4
				c0.84-0.55,1.73-0.99,2.68-1.32c0.95-0.33,1.9-0.55,2.86-0.64h0.06h0.03c0.23-0.04,0.47-0.06,0.7-0.07
				c0.23-0.01,0.46-0.01,0.67-0.01c1.8,0,3.46,0.38,4.98,1.14s2.85,1.76,3.98,3c1.13,1.24,2.05,2.63,2.75,4.17
				c0.7,1.56,1.13,3.12,1.29,4.69c0.1,0.8-0.01,1.68-0.32,2.64c-0.29,0.96-0.66,1.86-1.11,2.71c-0.45,0.85-0.92,1.6-1.41,2.24
				c-0.47,0.64-0.84,1.06-1.11,1.26c0.9-1.04,1.6-2.21,2.09-3.52c0.5-1.31,0.75-2.7,0.75-4.16c0-1.62-0.3-3.14-0.91-4.57
				c-0.63-1.43-1.47-2.67-2.53-3.74c-1.06-1.06-2.31-1.91-3.74-2.53c-1.43-0.6-2.95-0.91-4.57-0.91c-1.58,0-3.07,0.29-4.45,0.88
				c-1.41,0.59-2.64,1.38-3.69,2.39c-1.05,1.01-1.89,2.19-2.52,3.56c-0.64,1.37-1.01,2.83-1.08,4.39l0.09,0.76
				c0.12,1.13,0.43,2.3,0.94,3.52c0.51,1.21,1.21,2.27,2.09,3.18c0.89,0.91,1.96,1.57,3.21,1.98c1.27,0.41,2.71,0.38,4.34-0.09
				c0.25-0.76,0.72-1.39,1.39-1.89s1.44-0.75,2.3-0.75c1.07,0,1.99,0.38,2.74,1.14c0.75,0.76,1.13,1.67,1.13,2.72
				c0,0.94-0.32,1.77-0.97,2.49s-1.57,1.18-2.78,1.38l-0.21,0.03C20.86,34.61,18.64,34.25,16.57,33.44z"/>
		</g>
	</g>
</g>
<g id="ring_x5F_st" class="st1">
	<g class="st2">
		<path class="st3" d="M25.08,21.6c-1.44-0.56-2.69-1.31-3.76-2.25s-1.91-2-2.51-3.19c-0.6-1.18-0.89-2.37-0.86-3.57
			c0.05-0.81,0.19-1.61,0.41-2.42s0.53-1.58,0.94-2.32s0.92-1.43,1.52-2.07c0.62-0.64,1.33-1.2,2.15-1.68
			c0.59-0.38,1.21-0.69,1.88-0.92s1.33-0.38,2-0.45h0.04h0.02c0.16-0.03,0.33-0.04,0.49-0.05s0.32-0.01,0.47-0.01
			c1.26,0,2.42,0.27,3.49,0.8s2,1.23,2.79,2.1s1.44,1.84,1.93,2.92c0.49,1.09,0.79,2.19,0.9,3.28c0.07,0.56-0.01,1.18-0.23,1.85
			c-0.21,0.67-0.46,1.3-0.78,1.9c-0.31,0.59-0.64,1.12-0.98,1.57c-0.33,0.45-0.59,0.75-0.78,0.88c0.63-0.72,1.12-1.54,1.47-2.46
			c0.35-0.92,0.52-1.89,0.52-2.91c0-1.13-0.21-2.2-0.64-3.2c-0.44-1-1.03-1.87-1.77-2.61s-1.62-1.34-2.61-1.77
			c-1-0.42-2.06-0.64-3.2-0.64c-1.11,0-2.15,0.21-3.12,0.62c-0.98,0.41-1.85,0.97-2.58,1.67s-1.33,1.53-1.76,2.49
			c-0.45,0.96-0.7,1.98-0.76,3.08l0.06,0.53c0.08,0.79,0.3,1.61,0.66,2.46c0.36,0.85,0.84,1.59,1.47,2.23s1.37,1.1,2.25,1.38
			c0.89,0.29,1.9,0.27,3.04-0.06c0.18-0.53,0.5-0.97,0.97-1.32s1.01-0.52,1.61-0.52c0.75,0,1.39,0.27,1.92,0.8s0.79,1.17,0.79,1.91
			c0,0.66-0.23,1.24-0.68,1.74s-1.1,0.83-1.95,0.96l-0.14,0.02C28.08,22.41,26.53,22.16,25.08,21.6z"/>
	</g>
	<g class="st2">
		<g>
			<path class="st3" d="M14.43,17.94c0.23-0.17,0.49-0.26,0.78-0.26c0.38,0,0.71,0.15,0.98,0.45s0.41,0.66,0.41,1.07
				c0,0.42-0.14,0.78-0.41,1.08s-0.6,0.44-0.98,0.44c-2.43,0.18-4.42,0.76-5.97,1.74c-1.54,1-2.6,2.16-3.17,3.49
				s-0.63,2.71-0.17,4.14s1.46,2.68,3.04,3.73c0.21-1.37,0.52-2.4,0.94-3.1s0.91-1.2,1.45-1.5s1.12-0.49,1.73-0.55
				c0.62-0.05,1.22-0.12,1.83-0.21l-0.57,4.41l1.93,1.99c1.48-1.08,2.52-2.14,3.12-3.18s0.84-2.06,0.71-3.08s-0.59-2.01-1.38-2.99
				c-0.81-0.98-1.88-1.96-3.22-2.91c2.02,0.9,3.58,1.87,4.68,2.91s1.7,2.15,1.83,3.34s-0.25,2.46-1.13,3.81
				c-0.88,1.34-2.27,2.76-4.18,4.27l-3.81-3.38l-0.06-3.12c-0.68,0.03-1.25,0.53-1.69,1.52s-0.69,2.75-0.73,5.31
				c-2.82-2.23-4.68-4.29-5.6-6.19c-0.9-1.89-1.09-3.61-0.56-5.17s1.66-2.95,3.41-4.18c1.74-1.23,3.84-2.3,6.32-3.22
				C14.03,18.33,14.2,18.11,14.43,17.94z"/>
		</g>
	</g>
</g>
</svg>
