{
    "label": "Propriétés de terrain",
    "mapping": {
        "content": "content"
    },
    "entries": [
        {
            "id": "Dangerous",
            "name": "Dangereux",
            "content": "<blockquote>Livre de Règles p.267</blockquote>"
        },
        {
            "id": "Defiled",
            "name": "Profané",
            "content": "<blockquote>Livre de Règles p.267</blockquote>"
        },
        {
            "id": "Entangling",
            "name": "Handicapant",
            "content": "<blockquote>Livre de Règles p.267</blockquote>"
        },
        {
            "id": "Hallowed (One or More Elements)",
            "name": "Sanctifié (un ou plusieurs éléments)",
            "content": "<blockquote>Livre de Règles p.267</blockquote>"
        },
        {
            "id": "Imbalanced (One or More Elements)",
            "name": "Déséquilibré (un ou plusieurs éléments)",
            "content": "<blockquote>Livre de Règles p.267</blockquote>"
        },
        {
            "id": "Obscuring",
            "name": "Voilé",
            "content": "<blockquote>Livre de Règles p.267</blockquote>"
        },
        {
            "id": "Confining",
            "name": "Confining (WIP)",
            "content": "<blockquote>Les Champs de la Victoire</blockquote>"
        },
        {
            "id": "Elevated",
            "name": "Elevated (WIP)",
            "content": "<blockquote>Les Champs de la Victoire</blockquote>"
        },
        {
            "id": "Open",
            "name": "Open (WIP)",
            "content": "<blockquote>Les Champs de la Victoire</blockquote>"
        },
        {
            "id": "Recessed",
            "name": "Recessed (WIP)",
            "content": "<blockquote>Les Champs de la Victoire</blockquote>"
        },
        {
            "id": "Imbalanced (One or More Elements) Variant",
            "name": "Imbalanced (One or More Elements) Variant (WIP)",
            "content": "<blockquote>Décret de la nature</blockquote>"
        }
    ]
}
