{
    "label": "Liens",
    "mapping": {
        "description": "system.description",
        "book_reference": "system.book_reference",
        "bond_type": "system.bond_type"
    },
    "entries": [
        {
            "id": "Family",
            "name": "Familial",
            "description": "",
            "book_reference": "Les Cours de Pierre p.136",
            "bond_type": "Familial"
        },
        {
            "id": "Comrade",
            "name": "Amitié",
            "description": "",
            "book_reference": "Les Cours de Pierre p.137",
            "bond_type": "Amitié"
        },
        {
            "id": "Lover",
            "name": "Amoureux",
            "description": "",
            "book_reference": "Les Cours de Pierre p.137",
            "bond_type": "Amoureux"
        },
        {
            "id": "Rival",
            "name": "Rivalité",
            "description": "",
            "book_reference": "Les Cours de Pierre p.138",
            "bond_type": "Rivalité"
        },
        {
            "id": "Nemesis",
            "name": "Haine",
            "description": "",
            "book_reference": "Les Cours de Pierre p.138",
            "bond_type": "Haine"
        },
        {
            "id": "Old Flame",
            "name": "Ancien amant",
            "description": "",
            "book_reference": "La Voie des Vagues p.188",
            "bond_type": "Ancien amant"
        },
        {
            "id": "Partner",
            "name": "Partenaire",
            "description": "",
            "book_reference": "La Voie des Vagues p.189",
            "bond_type": "Partenaire"
        },
        {
            "id": "Protector and Ward",
            "name": "Protecteur et pupille",
            "description": "",
            "book_reference": "La Voie des Vagues p.189",
            "bond_type": "Protecteur et pupille"
        },
        {
            "id": "Wanderers Fellowship",
            "name": "Frères d’errance",
            "description": "",
            "book_reference": "La Voie des Vagues p.191",
            "bond_type": "Frères d’errance"
        }
    ]
}
