{
    "label": "Techniques Kata",
    "mapping": {
        "description": "system.description",
        "book_reference": "system.book_reference"
    },
    "entries": [
        {
            "id": "Flowing Water Strike",
            "name": "Assaut de l’eau courante",
            "description": "",
            "book_reference": "Livre de Règles p.174"
        },
        {
            "id": "Crimson Leaves Strike",
            "name": "Assaut des feuilles pourpres",
            "description": "",
            "book_reference": "Livre de Règles p.175"
        },
        {
            "id": "Heartpiercing Strike",
            "name": "Assaut en plein coeur",
            "description": "",
            "book_reference": "Livre de Règles p.175"
        },
        {
            "id": "Battle in the Mind",
            "name": "Bataille mentale",
            "description": "",
            "book_reference": "Livre de Règles p.175"
        },
        {
            "id": "Lord Shiba’s Valor (Phoenix)",
            "name": "Bravoure de Sire Shiba (Phénix)",
            "description": "",
            "book_reference": "Livre de Règles p.175"
        },
        {
            "id": "Soul Sunder",
            "name": "Destruction de l’âme",
            "description": "",
            "book_reference": "Livre de Règles p.176"
        },
        {
            "id": "Warrior’s Resolve",
            "name": "Détermination du guerrier",
            "description": "",
            "book_reference": "Livre de Règles p.176"
        },
        {
            "id": "Tactical Assessment",
            "name": "Evaluation tactique",
            "description": "",
            "book_reference": "Livre de Règles p.176"
        },
        {
            "id": "Soaring Slice",
            "name": "Mortelle envolée",
            "description": "",
            "book_reference": "Livre de Règles p.177"
        },
        {
            "id": "Striking as Air",
            "name": "Offensive de l’Air",
            "description": "",
            "book_reference": "Livre de Règles p.177"
        },
        {
            "id": "Striking as Water",
            "name": "Offensive de l'Eau",
            "description": "",
            "book_reference": "Livre de Règles p.177"
        },
        {
            "id": "Striking as Earth",
            "name": "Offensive de la Terre",
            "description": "",
            "book_reference": "Livre de Règles p.177"
        },
        {
            "id": "Striking as Fire",
            "name": "Offensive du Feu",
            "description": "",
            "book_reference": "Livre de Règles p.177"
        },
        {
            "id": "Striking as Void",
            "name": "Offensive du Vide",
            "description": "",
            "book_reference": "Livre de Règles p.177"
        },
        {
            "id": "Lord Hida’s Grip (Crab)",
            "name": "Poigne de Sire Hida (Crabe)",
            "description": "",
            "book_reference": "Livre de Règles p.178"
        },
        {
            "id": "Disappearing World Style",
            "name": "Style de la disparition du monde",
            "description": "",
            "book_reference": "Livre de Règles p.178"
        },
        {
            "id": "Crashing Wave Style",
            "name": "Style de la vague déferlante",
            "description": "",
            "book_reference": "Livre de Règles p.178"
        },
        {
            "id": "Crescent Moon Style",
            "name": "Style du croissant de lune",
            "description": "",
            "book_reference": "Livre de Règles p.178"
        },
        {
            "id": "Iron in the Mountains Style",
            "name": "Style du fer dans les montagnes",
            "description": "",
            "book_reference": "Livre de Règles p.178"
        },
        {
            "id": "Breath of Wind Style",
            "name": "Style du souffle du vent",
            "description": "",
            "book_reference": "Livre de Règles p.178"
        },
        {
            "id": "Thunderclap Strike",
            "name": "Assaut du coup de tonnerre",
            "description": "",
            "book_reference": "Livre de Règles p.179"
        },
        {
            "id": "Iaijutsu Cut: Rising Blade",
            "name": "Attaque de iaijutsu : lame ascendante",
            "description": "",
            "book_reference": "Livre de Règles p.179"
        },
        {
            "id": "Iaijutsu Cut: Crossing Blade",
            "name": "Attaque de iaijutsu : lame horizontale",
            "description": "",
            "book_reference": "Livre de Règles p.180"
        },
        {
            "id": "Rushing Avalanche Style",
            "name": "Style de l’avalanche meurtrière",
            "description": "",
            "book_reference": "Livre de Règles p.180"
        },
        {
            "id": "Iron Forest Style",
            "name": "Style de la forêt de fer",
            "description": "",
            "book_reference": "Livre de Règles p.180"
        },
        {
            "id": "Open-Hand Style",
            "name": "Style de la main ouverte",
            "description": "",
            "book_reference": "Livre de Règles p.180"
        },
        {
            "id": "Veiled Menace Style",
            "name": "Style de la menace voilée",
            "description": "",
            "book_reference": "Livre de Règles p.180"
        },
        {
            "id": "Spinning Blades Style",
            "name": "Style des lames tournoyantes",
            "description": "",
            "book_reference": "Livre de Règles p.180"
        },
        {
            "id": "Coiling Serpent Style",
            "name": "Style du serpent constricteur",
            "description": "",
            "book_reference": "Livre de Règles p.181"
        },
        {
            "id": "Pin the Fan",
            "name": "Clouer l’éventail",
            "description": "",
            "book_reference": "Livre de Règles p.181"
        },
        {
            "id": "Hawk’s Precision",
            "name": "Précision du faucon",
            "description": "",
            "book_reference": "Livre de Règles p.181"
        },
        {
            "id": "Pelting Hail Style",
            "name": "Style de l’averse de grêle",
            "description": "",
            "book_reference": "Livre de Règles p.181"
        },
        {
            "id": "Trip the Leg",
            "name": "Croc-en-jambe",
            "description": "",
            "book_reference": "Les Cours de Pierre p.113"
        },
        {
            "id": "Pole-Vault",
            "name": "Saut à la perche",
            "description": "",
            "book_reference": "Les Cours de Pierre p.113"
        },
        {
            "id": "Chaotic Scattering",
            "name": "Dispersion chaotique",
            "description": "",
            "book_reference": "La Voie des Vagues p.86"
        },
        {
            "id": "Mind's Edge",
            "name": "Le tranchant de l’esprit",
            "description": "",
            "book_reference": "La Voie des Vagues p.86"
        },
        {
            "id": "Iron Shell Style",
            "name": "Style de la carapace de fer",
            "description": "",
            "book_reference": "La Voie des Vagues p.87"
        },
        {
            "id": "Boar's Wrath Style",
            "name": "Style de la fureur du sanglier",
            "description": "",
            "book_reference": "La Voie des Vagues p.90"
        },
        {
            "id": "Thunderous Hooves Style",
            "name": "Style du tonnerre des sabots",
            "description": "",
            "book_reference": "La Voie des Vagues p.87"
        },
        {
            "id": "Rider's Haste",
            "name": "La précipitation du cavalier",
            "description": "",
            "book_reference": "La Voie des Vagues p.86"
        },
        {
            "id": "Void Embrace Style",
            "name": "Style de l’étreinte du Vide",
            "description": "",
            "book_reference": "La Voie des Vagues p.87"
        },
        {
            "id": "Improvised Assault",
            "name": "Assaut improvisé",
            "description": "",
            "book_reference": "La Voie des Vagues p.88"
        },
        {
            "id": "Bonebreaker Style",
            "name": "Style de l’écrasement des os",
            "description": "",
            "book_reference": "La Voie des Vagues p.90"
        },
        {
            "id": "Flashing Steel Strike",
            "name": "Assaut de l’éclat d’acier",
            "description": "",
            "book_reference": "La Voie des Vagues p.87"
        },
        {
            "id": "Deflective Defense",
            "name": "Déflexion",
            "description": "",
            "book_reference": "La Voie des Vagues p.89"
        },
        {
            "id": "Daring Swing",
            "name": "Balancement hardi",
            "description": "",
            "book_reference": "La Voie des Vagues p.89"
        },
        {
            "id": "Iaijutsu Cut: Reverse Draw",
            "name": "Attaque de iaijutsu : garde inversée",
            "description": "",
            "book_reference": "La Voie des Vagues p.88"
        },
        {
            "id": "Landslide Strike",
            "name": "Assaut du glissement de terrain",
            "description": "",
            "book_reference": "La Voie des Vagues p.88"
        },
        {
            "id": "Laughing Fox Style",
            "name": "Style du renard rieur",
            "description": "",
            "book_reference": "La Voie des Vagues p.91"
        },
        {
            "id": "Iaijutsu Cut: Sword and Sheath",
            "name": "Attaque de iaijutsu : sabre et fourreau",
            "description": "",
            "book_reference": "La Voie des Vagues p.88"
        },
        {
            "id": "Piercing Bolt Style",
            "name": "Style de la charge perforante",
            "description": "",
            "book_reference": "La Voie des Vagues p.90"
        },
        {
            "id": "Reckless Lunge",
            "name": "Fente téméraire",
            "description": "",
            "book_reference": "La Voie des Vagues p.89"
        },
        {
            "id": "Swirling Tempest Style",
            "name": "Style de la tempête tournoyante",
            "description": "",
            "book_reference": "La Voie des Vagues p.90"
        },
        {
            "id": "Snapping Branch Strike",
            "name": "Assaut de la branche cassée",
            "description": "",
            "book_reference": "La Voie des Vagues p.87"
        },
        {
            "id": "Thunderous Blows Style",
            "name": "Style des coups tonitruants",
            "description": "",
            "book_reference": "La Voie des Vagues p.91"
        },
        {
            "id": "Rushing Ox Style",
            "name": "Style de la charge du taureau",
            "description": "",
            "book_reference": "La Voie des Vagues p.90"
        },
        {
            "id": "Wheeling Sweep",
            "name": "Balayage tournoyant",
            "description": "",
            "book_reference": "La Voie des Vagues p.89"
        },
        {
            "id": "Eyeless Sight Shot",
            "name": "Tir à l’aveugle",
            "description": "",
            "book_reference": "La Voie des Vagues p.91"
        },
        {
            "id": "Twin Streams Style",
            "name": "Style des ruisseaux jumeaux",
            "description": "",
            "book_reference": "La Voie des Vagues p.91"
        },
        {
            "id": "Staggering Shot",
            "name": "Tir déséquilibrant",
            "description": "",
            "book_reference": "La Voie des Vagues p.92"
        },
        {
            "id": "Falling Heavens Shot",
            "name": "Tir tombé des Cieux",
            "description": "",
            "book_reference": "La Voie des Vagues p.92"
        },
        {
            "id": "Swirling Viper Style",
            "name": "Style de la vipère tournoyante",
            "description": "",
            "book_reference": "La Voie des Vagues p.91"
        },
        {
            "id": "Wasp's Spite Style",
            "name": "Style de l’agressivité de la guêpe",
            "description": "",
            "book_reference": "La Voie des Vagues p.91"
        },
        {
            "id": "Fierce Badger Style",
            "name": "Fierce Badger Style (WIP)",
            "description": "",
            "book_reference": "Les Champs de la Victoire"
        },
        {
            "id": "Thicket's Embrace Style",
            "name": "Thicket's Embrace Style (WIP)",
            "description": "",
            "book_reference": "Les Champs de la Victoire"
        },
        {
            "id": "Shattering Tide Style",
            "name": "Shattering Tide Style (WIP)",
            "description": "",
            "book_reference": "Les Champs de la Victoire"
        },
        {
            "id": "Bear’s Swipe Style",
            "name": "Bear’s Swipe Style (WIP)",
            "description": "",
            "book_reference": "Décret de la nature"
        },
        {
            "id": "Serpent’s Twist Style",
            "name": "Serpent’s Twist Style (WIP)",
            "description": "",
            "book_reference": "Décret de la nature"
        },
        {
            "id": "Swallow’s Dart Style",
            "name": "Swallow’s Dart Style (WIP)",
            "description": "",
            "book_reference": "Décret de la nature"
        },
        {
            "id": "Tiger’s Lunge Style",
            "name": "Tiger’s Lunge Style (WIP)",
            "description": "",
            "book_reference": "Décret de la nature"
        },
        {
            "id": "Flexible Grip",
            "name": "Flexible Grip (WIP)",
            "description": "",
            "book_reference": "Décret de la nature"
        },
        {
            "id": "Howling Gale Defense",
            "name": "Howling Gale Defense (WIP)",
            "description": "",
            "book_reference": "Décret de la nature"
        },
        {
            "id": "Heron’s Grasp Style",
            "name": "Heron’s Grasp Style (WIP)",
            "description": "",
            "book_reference": "Décret de la nature"
        },
        {
            "id": "Serow’s Leap Style",
            "name": "Serow’s Leap Style (WIP)",
            "description": "",
            "book_reference": "Décret de la nature"
        },
        {
            "id": "Tumbling Oak Style",
            "name": "Tumbling Oak Style (WIP)",
            "description": "",
            "book_reference": "Décret de la nature"
        },
        {
            "id": "Flight",
            "name": "Flight (WIP)",
            "description": "",
            "book_reference": "Décret de la nature"
        },
        {
            "id": "Razor Bite",
            "name": "Razor Bite (WIP)",
            "description": "",
            "book_reference": "Décret de la nature"
        },
        {
            "id": "Owl’s Swoop Style",
            "name": "Owl’s Swoop Style (WIP)",
            "description": "",
            "book_reference": "Décret de la nature"
        },
        {
            "id": "Skittering Shift",
            "name": "Skittering Shift (WIP)",
            "description": "",
            "book_reference": "Décret de la nature"
        },
        {
            "id": "Tail Sweep",
            "name": "Tail Sweep (WIP)",
            "description": "",
            "book_reference": "Décret de la nature"
        }
    ]
}
